{
  "d7ad9a87f5800753a9e1798203ddc720a035898787436bde2b752cf6394cfccc": true,
  "2a62c6ef9578bcc1262e42d32152d7125324b53db4197d7d4a9fcb73446b82bf": true,
  "5724ced7ae9f3aba4208a9cede709b96d0c6baa23be40678358d4989d40883e9": true,
  "0c353e2c016e5701be258ccd7b2d42f3a454adeba0c4d9b796cacce6cad05e72": true,
  "0c8b1f98f4eb2d314e1456ab69a99ed22288dd050ac0fd9964ee06b3ff4ddff5": true,
  "7aed62e41313853885a567b7cbf691ac52a79033087a215ae482e99b521b0786": true,
  "af6d8be868a4b187b2669bebebd286c7474f78581677828b1195339b5f1d4b43": true,
  "e6248f89b938c84e7796f5e777dfcb36670178ce0d3fee8f426d695db6e8c518": true,
  "8609571a71a5b3836543cc3ecf70dce1197e8e0ead4d20d5d51c5b3bec95bb3c": true,
  "b28a372bb02a22afdfcfd077ea237266c705b7d8b7f4a25d3c7c8f9ad34969f3": true,
  "ea3cb88b4423f19c99eace1ea7cbc6cd5d072c8df7d4f5c9f6442fa3e244d914": true,
  "4643f4f7ce2027584098ee92280e1f3d53ff18477addfc877495c36363fa798c": true,
  "dba1cb264cf0ce9a39fdab55bdc09dfe3ed5ba229710317888b745fd38eef46e": true,
  "35d296916e845d6fefb949d40afe2500d61529aac9c84630665bdeb991110a5d": true,
  "b5e8da85b4e863a72680d6ec87b9635df43d69f1303b8cb58c1a4adf5489d5ef": true,
  "fe8eebaa7ae12a0d7589e10dc44a072e58fcd8478b32dce8c572ef051452bf0f": true,
  "09bd0868fb405710e549b0a202609163f3bd5cfd09452d8a6011e0f8b0c3c18e": true,
  "88663846f662e7e90b5f18d61f5ca183ac734e207aad8f777e7a563175f4400d": true,
  "7c090a72dd90511abb4a698cb4d29abe25a3d851805fbb71848099c5e8657a5b": true,
  "3b76c77e0dce90821b4680f8a9e082d887fbae57eb0be42d7adf13ae9b0d64eb": true,
  "0996a7f212cce31e42f3d855d071f04e4fc1d6e24646b4d83e274f56495c04cd": true,
  "b5862f40748f23761860e62b58229c7f8d8d1c50f0e76a74ecc3a85e87406e37": true,
  "200c558c869863fbe9db85a9f09f480d203af8b28d42e9a0726a4bb0de40e910": true,
  "7dc7e8a4ea34213b5bc570c7086ff9209adc5e22ea0325f509148b2407e7b5e5": true,
  "1ecc853a9ae8567cac80370db9886cf7304c36c3fcbe279035c53cddf409fc20": true,
  "2a1d568ce78df96d4a3a8de104a3837241646f7de759a5f3a60c12f6fe346f08": true,
  "b3327ddce26efa6473cec461bf821e75f0625beedd1de747503a79128337741b": true,
  "d4d324cd49201e3834731bb10a2ab2c048e1565f01baca1f06696be989cfb679": true,
  "a33c1114a64a1c049fac4d0b7ad36911397dba1b03dbf526cbd2ddefd9065a40": true,
  "1bd5a3678d154d933eac87cb8982e93e7e16dea3edcc5819f4085f1a184a1755": true
}